Group-Level Sensitivity Analysis • dubicube
…
#> Number of cells: 379 
#> Grid reference system: mgrs 
#> Coordinate range:
#>    xmin    xmax    ymin    ymax 
#>  280000  710000 5480000 5700000 
#> 
#> Total number of observations: 13225290 
#> Number of species represented: 646 
#> Number of families represented: 92 
#> 
#> Kingdoms represented: Data not present 
#> 
#> First 10 rows of data (use n = to show more):
#> 
#> # A tibble: 280,184 × 13
#>     year cellCode taxonKey scientificName    family   obs minCoordinateUncerta…¹
#>    <dbl> <chr>       <dbl> <chr>             <chr>  <dbl>                  <dbl>
#>  1  2011 31UDS65   2474051 Alectoris rufa    Phasi…     1                    100
#>  2  2011 31UDS65   2474377 Fulica atra       Ralli…     6                   1000
#>  3  2011 31UDS65   2474831 Rallus aquaticus  Ralli…     1                   1000
#>  4  2011 31UDS65   2478523 Picus viridis     Picid…     5                   3536
#>  5  2011 31UDS65   2480242 Vanellus vanellus Chara…     4                   1000
#>  6  2011 31UDS65   2480332 Pluvialis aprica… Chara…     1                   1000
#>  7  2011 31UDS65   2480482 Circus aeruginos… Accip…     2                   3536
#>  8  2011 31UDS65   2480487 Circus cyaneus    Accip…     9                   3536
#>  9  2011 31UDS65   2480537 Buteo buteo       Accip…     8                   3536
#> 10  2011 31UDS65   2480637 Accipiter nisus   Accip…     9                   3536
#> # ℹ 280,174 more rows
#> # ℹ abbreviated name: ¹​minCoordinateUncertaintyInMeters
#> # ℹ 6 more variables: familyCount <dbl>, xcoord <dbl>, ycoord <dbl>,
#> #   utmzone <int>, hemisphere <chr>, resolution <chr>
…
