Visualising Spatial Trends • dubicube
…
#> Number of cells: 134 
#> Grid reference system: mgrs 
#> Coordinate range:
#>    xmin    xmax    ymin    ymax 
#>  460000  690000 5610000 5700000 
#> 
#> Total number of observations: 91206 
#> Number of species represented: 316 
#> Number of families represented: 67 
#> 
#> Kingdoms represented: Data not present 
#> 
#> First 10 rows of data (use n = to show more):
#> 
#> # A tibble: 2,391 × 13
#>     year cellCode taxonKey scientificName    family   obs minCoordinateUncerta…¹
#>    <dbl> <chr>       <dbl> <chr>             <chr>  <dbl>                  <dbl>
#>  1  2000 31UES44   2481714 Tringa totanus    Scolo…     1                   3536
#>  2  2000 31UFS05   2481740 Calidris temminc… Scolo…     3                   3536
#>  3  2000 31UES43   2492943 Sylvia communis   Sylvi…     8                   1414
#>  4  2000 31UES44   5739317 Phoenicurus phoe… Musci…    10                   1000
#>  5  2000 31UFS63   2481700 Scolopax rustico… Scolo…     1                   3536
#>  6  2000 31UFS74   5845582 Chloris chloris   Fring…     3                   3536
#>  7  2000 31UFS65   2492960 Sylvia curruca    Sylvi…     7                   3536
#>  8  2000 31UFS07   2493091 Phylloscopus col… Phyll…    19                   1414
#>  9  2000 31UDS86   2489214 Delichon urbicum  Hirun…     3                   3536
#> 10  2000 31UES85   2473958 Perdix perdix     Phasi…     9                   1414
#> # ℹ 2,381 more rows
#> # ℹ abbreviated name: ¹​minCoordinateUncertaintyInMeters
#> # ℹ 6 more variables: familyCount <dbl>, xcoord <dbl>, ycoord <dbl>,
#> #   utmzone <int>, hemisphere <chr>, resolution <chr>
…
