Whole-cube Bootstrap versus Group-specific Bootstrap • dubicube
…
#> Number of cells: 242 
#> Grid reference system: mgrs 
#> Coordinate range:
#>    xmin    xmax    ymin    ymax 
#>  280000  710000 5490000 5700000 
#> 
#> Total number of observations: 45143 
#> Number of species represented: 253 
#> Number of families represented: 57 
#> 
#> Kingdoms represented: Data not present 
#> 
#> First 10 rows of data (use n = to show more):
#> 
#> # A tibble: 957 × 13
#>     year cellCode taxonKey scientificName    family   obs minCoordinateUncerta…¹
#>    <dbl> <chr>       <dbl> <chr>             <chr>  <dbl>                  <dbl>
#>  1  2011 31UFS56   5231918 Cuculus canorus   Cucul…    11                   3536
#>  2  2011 31UES28   5739317 Phoenicurus phoe… Musci…     6                   3536
#>  3  2011 31UFS64   6065824 Chroicocephalus … Larid…   143                   1000
#>  4  2011 31UFS96   2492576 Muscicapa striata Musci…     3                   3536
#>  5  2011 31UES04   5231198 Passer montanus   Passe…     1                   3536
#>  6  2011 31UES85   5229493 Garrulus glandar… Corvi…    23                    707
#>  7  2011 31UES88  10124612 Anser anser x Br… Anati…     1                    100
#>  8  2011 31UES22   2481172 Larus marinus     Larid…     8                   1000
#>  9  2011 31UFS43   2481139 Larus argentatus  Larid…    10                   3536
#> 10  2011 31UFT00   9274012 Spatula querqued… Anati…     8                   3536
#> # ℹ 947 more rows
#> # ℹ abbreviated name: ¹​minCoordinateUncertaintyInMeters
#> # ℹ 6 more variables: familyCount <dbl>, xcoord <dbl>, ycoord <dbl>,
#> #   utmzone <int>, hemisphere <chr>, resolution <chr>
…
